COMPSCIX 415.2 Homework 4_herman_andrew
…
Section 5.6.7: #2, #4 and #6 only. Extra Credit: Do #5

Come up with another approach that will give you the same output as not_cancelled %>% count(dest) and not_cancelled %>% count(tailnum, wt = distance) (without using count()).

not_cancelled <- flights %>% 
  filter(!is.na(dep_delay), !is.na(arr_delay))

not_cancelled %>%
group_by(dest) %>%
summarise(n = n())

## # A tibble: 104 x 2
##    dest      n
##    <chr> <int>
##  1 ABQ     254
##  2 ACK     264
##  3 ALB     418
##  4 ANC       8
##  5 ATL   16837
##  6 AUS    2411
##  7 AVL     261
##  8 BDL     412
##  9 BGR     358
## 10 BHM     269
## #  with 94 more rows

not_cancelled <- flights %>% 
  filter(!is.na(dep_delay), !is.na(arr_delay))

not_cancelled %>%
group_by(tailnum) %>%
summarise(n = n())

## # A tibble: 4,037 x 2
##    tailnum     n
##    <chr>   <int>
##  1 D942DN      4
##  2 N0EGMQ    352
##  3 N10156    145
##  4 N102UW     48
##  5 N103US     46
##  6 N104UW     46
##  7 N10575    269
##  8 N105UW     45
##  9 N107US     41
## 10 N108UW     60
## #  with 4,027 more rows
…
